﻿cluster,proxy
Super Seculars,Open Progressives
Civic Faithful,Socially Engaged
Family and Future,Optimistic Humanists
Struggling Skeptics,Anti-Institutionalists
Disheartened but Determined,Politically Disengaged
Nostalgic Traditionalists,Status Quo Preservers
Merit and Market,Libertarian Leaning
Concerned Conservatives,Traditionalist Values
Proud Providers,Business and Family
,
,
,
,
,
,
,